# vtk DataFile Version 4.1
Thisis a comment line
ASCII
DATASET UNSTRUCTURED_GRID
POINTS 4 float
0.0000000000000000 0.0000000000000000 0.0000000000000000
1.0000000000000000 0.0000000000000000 0.0000000000000000
1.0000000000000000 1.0000000000000000 0.0000000000000000
0.0000000000000000 1.0000000000000000 0.0000000000000000
CELLS 1 5
4 0 1 2 3
CELL_TYPES 1
9
POINT_DATA 4
VECTORS Displacement_Vector_Data float
0.0000000000000000 0.0000000000000000 0.0
-0.30000000002745650E-5 0.0000000000000000 0.0
-0.29999999998962152E-5 0.10000000000217761E-4 0.0
0.0000000000000000 0.99999999999957165E-5 0.0
